4

C        0.0000000000      0.0000000000      0.0000000000                 
C        0.6503882329      0.0000000000      1.2046394260                 
H       -1.0909993036      0.0000000000      0.0012326643                 
H        1.7413875365      0.0000000000      1.2034067617  

TV    0.0  0.0  4.6745830567146003

N_L 10
N_S 10
Namur
K_L 20
sto-3g
PRINT 0
CORE
LR 0.00000000
